…
<br>

### **Re-ordering columns**

You can use the `select()` function (see below) to re-order columns. The
order in which you select them will determine the final order.

    kickstarter_sample %>% 
      select(main_category, category, goal, currency)

    ## # A tibble: 100 x 4
    ##    main_category category          goal currency
    ##    <chr>         <chr>            <dbl> <chr>   
    ##  1 Art           Art            20000   EUR     
    ##  2 Music         Rock           60000   USD     
    ##  3 Music         Punk             150   CAD     
    ##  4 Technology    Apps            5000   AUD     
    ##  5 Music         Faith           3750   USD     
    ##  6 Technology    Technology     25000   EUR     
    ##  7 Design        Graphic Design    50.0 USD     
    ##  8 Film & Video  Animation        350   NOK     
    ##  9 Food          Drinks           100   CAD     
    ## 10 Theater       Theater          650   USD     
    ## # ... with 90 more rows
…
<br>

### **Renaming a column**

If you are doing a select statement anyways, you can rename straight in
the `select` function.

    kickstarter_sample %>%
      select(main_category, category, project = name, status = state)

    ## # A tibble: 100 x 4
    ##    main_category category       project                           status  
    ##    <chr>         <chr>          <chr>                             <chr>   
    ##  1 Art           Art            Positive7 - Werde Teil der Beweg~ failed  
    ##  2 Music         Rock           The Buddz Break Out Album and Mu~ canceled
    ##  3 Music         Punk           Stupid Is As Stupid Does!         failed  
    ##  4 Technology    Apps           CITFREE.COM                       failed  
    ##  5 Music         Faith          I won't stay silent               failed  
    ##  6 Technology    Technology     "100% Ecological Lava Lamp - \"E~ failed  
    ##  7 Design        Graphic Design 100s of Logos in 10 Days!         success~
    ##  8 Film & Video  Animation      Samurai Warrior the Anime Series  failed  
    ##  9 Food          Drinks         Exploring Torontos Beer Scene As~ failed  
    ## 10 Theater       Theater        Revolutionary Shorts: Join the C~ success~
    ## # ... with 90 more rows
…
<br>

### **Selecting columns by their full name**

To select a few columns just add their names in the select statement.
The order in which you code them, will determine the order in which they
appear in the output - unless you create summary functions later on.

    kickstarter_sample %>%
      select(main_category, state, name)

    ## # A tibble: 100 x 3
    ##    main_category state      name                                          
    ##    <chr>         <chr>      <chr>                                         
    ##  1 Art           failed     Positive7 - Werde Teil der Bewegung!          
    ##  2 Music         canceled   The Buddz Break Out Album and Music Video (Ca~
    ##  3 Music         failed     Stupid Is As Stupid Does!                     
    ##  4 Technology    failed     CITFREE.COM                                   
    ##  5 Music         failed     I won't stay silent                           
    ##  6 Technology    failed     "100% Ecological Lava Lamp - \"Elava Lamp\""  
    ##  7 Design        successful 100s of Logos in 10 Days!                     
    ##  8 Film & Video  failed     Samurai Warrior the Anime Series              
    ##  9 Food          failed     Exploring Torontos Beer Scene As A Broke Coll~
    ## 10 Theater       successful Revolutionary Shorts: Join the Cause          
    ## # ... with 90 more rows

If want to add a lot of columns, it can save a lot of space to have a
good look at your data and see whether you can't get to your selection
by using chunks, deselecting or even deselect a column and re-add it
straight after.

To add a chunk of columns use the `start_col:end_col` syntax:

    kickstarter_sample %>%
      select(name:main_category, currency:pledged)

    ## # A tibble: 100 x 5
    ##    name                              main_category currency   goal pledged
    ##    <chr>                             <chr>         <chr>     <dbl>   <dbl>
    ##  1 Positive7 - Werde Teil der Beweg~ Art           EUR      2.00e4    1.00
    ##  2 The Buddz Break Out Album and Mu~ Music         USD      6.00e4  609   
    ##  3 Stupid Is As Stupid Does!         Music         CAD      1.50e2    4.00
    ##  4 CITFREE.COM                       Technology    AUD      5.00e3    0   
    ##  5 I won't stay silent               Music         USD      3.75e3   65.0 
    ##  6 "100% Ecological Lava Lamp - \"E~ Technology    EUR      2.50e4  744   
    ##  7 100s of Logos in 10 Days!         Design        USD      5.00e1  120   
    ##  8 Samurai Warrior the Anime Series  Film & Video  NOK      3.50e2    0   
    ##  9 Exploring Torontos Beer Scene As~ Food          CAD      1.00e2    5.00
    ## 10 Revolutionary Shorts: Join the C~ Theater       USD      6.50e2  721   
    ## # ... with 90 more rows

An alternative is to **deselect columns** by adding a minus sign in
front of the column name. You can also deselect chunks of columns. It's
even possible to deselect a whole chunk, and then re-add a column again
(as long as it is in the same select statement)

    #deselecting one column (ID), deselecting all columns from date_launched until the end, but re-adding some columns from that large chunk.
    kickstarter_sample %>% 
      select(-ID, -(date_launched:country), currency:pledged)

    ## # A tibble: 100 x 6
    ##    name                   main_category category   currency   goal pledged
    ##    <chr>                  <chr>         <chr>      <chr>     <dbl>   <dbl>
    ##  1 Positive7 - Werde Tei~ Art           Art        EUR      2.00e4    1.00
    ##  2 The Buddz Break Out A~ Music         Rock       USD      6.00e4  609   
    ##  3 Stupid Is As Stupid D~ Music         Punk       CAD      1.50e2    4.00
    ##  4 CITFREE.COM            Technology    Apps       AUD      5.00e3    0   
    ##  5 I won't stay silent    Music         Faith      USD      3.75e3   65.0 
    ##  6 "100% Ecological Lava~ Technology    Technology EUR      2.50e4  744   
    ##  7 100s of Logos in 10 D~ Design        Graphic D~ USD      5.00e1  120   
    ##  8 Samurai Warrior the A~ Film & Video  Animation  NOK      3.50e2    0   
    ##  9 Exploring Torontos Be~ Food          Drinks     CAD      1.00e2    5.00
    ## 10 Revolutionary Shorts:~ Theater       Theater    USD      6.50e2  721   
    ## # ... with 90 more rows
…
### **Selecting columns based on partial names**

If you have a lot of columns with a similar structure you can use
partial matching by adding `starts_with()`, `ends_with()` or
`contains()` in your select statement depending on how you want to match
columns.

I can for instance add all columns that contain the word 'category',
start with 'date' and end with the letter 'e'.()

    #selecting based on partial matches
    kickstarter_sample %>%
      select(contains("category"), starts_with("date"), ends_with("e")) 

    ## # A tibble: 100 x 6
    ##    main_category category  date_launched       date_deadline       name   
    ##    <chr>         <chr>     <dttm>              <dttm>              <chr>  
    ##  1 Art           Art       2016-08-16 23:33:53 2016-09-25 23:33:53 Positi~
    ##  2 Music         Rock      2013-04-02 02:25:07 2013-05-02 02:25:07 The Bu~
    ##  3 Music         Punk      2015-09-02 22:41:19 2015-11-01 22:41:19 Stupid~
    ##  4 Technology    Apps      2014-10-17 08:31:33 2014-12-16 08:31:33 CITFRE~
    ##  5 Music         Faith     2014-07-08 18:39:33 2014-08-13 00:16:00 I won'~
    ##  6 Technology    Technolo~ 2015-09-21 21:34:48 2015-11-05 21:34:48 "100% ~
    ##  7 Design        Graphic ~ 2012-01-28 23:17:24 2012-02-07 23:17:24 100s o~
    ##  8 Film & Video  Animation 2015-06-13 23:30:43 2015-07-13 23:30:43 Samura~
    ##  9 Food          Drinks    2015-03-10 23:39:48 2015-04-10 00:39:48 Explor~
    ## 10 Theater       Theater   2010-07-08 08:19:45 2010-08-04 05:59:00 Revolu~
    ## # ... with 90 more rows, and 1 more variable: state <chr>
…
### **Selecting columns based on regex**

The previous helper functions work with exact pattern matches. If you
have similar patterns that are not entirely the same you can use any
regular expression inside `matches()`.  
The below example code will add any columns where you have 'a.e' in the
title with the dot representing any other letter, but excludes the word
to be 'da.e', so the date columns will not be selected.

    #selecting based on regex
    kickstarter_sample %>%
      select(matches("[^d]a.e"))

    ## # A tibble: 100 x 4
    ##    name                                 main_category category     state  
    ##    <chr>                                <chr>         <chr>        <chr>  
    ##  1 Positive7 - Werde Teil der Bewegung! Art           Art          failed 
    ##  2 The Buddz Break Out Album and Music~ Music         Rock         cancel~
    ##  3 Stupid Is As Stupid Does!            Music         Punk         failed 
    ##  4 CITFREE.COM                          Technology    Apps         failed 
    ##  5 I won't stay silent                  Music         Faith        failed 
    ##  6 "100% Ecological Lava Lamp - \"Elav~ Technology    Technology   failed 
    ##  7 100s of Logos in 10 Days!            Design        Graphic Des~ succes~
    ##  8 Samurai Warrior the Anime Series     Film & Video  Animation    failed 
    ##  9 Exploring Torontos Beer Scene As A ~ Food          Drinks       failed 
    ## 10 Revolutionary Shorts: Join the Cause Theater       Theater      succes~
    ## # ... with 90 more rows

<br>

### **Selecting columns by their data type**

The `select_if` function allows you to pass functions which return
logical statements inside. For instance you can select all the string
columns by passing `select_if(is.character)`. Similarly, you can add
`is.numeric`, `is.integer`, `is.double`, `is.logical`, `is.factor`.

    #select all string columns
    kickstarter_sample %>%
      select_if(is.numeric)

    ## # A tibble: 100 x 3
    ##       goal pledged backers
    ##      <dbl>   <dbl>   <int>
    ##  1 20000      1.00       1
    ##  2 60000    609          5
    ##  3   150      4.00       2
    ##  4  5000      0          0
    ##  5  3750     65.0        5
    ##  6 25000    744         14
    ##  7    50.0  120          8
    ##  8   350      0          0
    ##  9   100      5.00       1
    ## 10   650    721          6
    ## # ... with 90 more rows

You can also select the negation but in this case you will need to add a
tilde to ensure that you still pass a function to `select_if`.

    kickstarter_sample %>%
      select_if(~!is.character(.))

    ## # A tibble: 100 x 5
    ##    date_launched       date_deadline          goal pledged backers
    ##    <dttm>              <dttm>                <dbl>   <dbl>   <int>
    ##  1 2016-08-16 23:33:53 2016-09-25 23:33:53 20000      1.00       1
    ##  2 2013-04-02 02:25:07 2013-05-02 02:25:07 60000    609          5
    ##  3 2015-09-02 22:41:19 2015-11-01 22:41:19   150      4.00       2
    ##  4 2014-10-17 08:31:33 2014-12-16 08:31:33  5000      0          0
    ##  5 2014-07-08 18:39:33 2014-08-13 00:16:00  3750     65.0        5
    ##  6 2015-09-21 21:34:48 2015-11-05 21:34:48 25000    744         14
    ##  7 2012-01-28 23:17:24 2012-02-07 23:17:24    50.0  120          8
    ##  8 2015-06-13 23:30:43 2015-07-13 23:30:43   350      0          0
    ##  9 2015-03-10 23:39:48 2015-04-10 00:39:48   100      5.00       1
    ## 10 2010-07-08 08:19:45 2010-08-04 05:59:00   650    721          6
    ## # ... with 90 more rows
…
    kickstarter_sample %>%
      select_if(is.numeric) %>%
      select_if(~mean(., na.rm=TRUE) > 500)

or shorter:

    kickstarter_sample %>%
      select_if(~is.numeric(.) & mean(., na.rm=TRUE)>500)

    ## # A tibble: 100 x 2
    ##       goal pledged
    ##      <dbl>   <dbl>
    ##  1 20000      1.00
    ##  2 60000    609   
    ##  3   150      4.00
    ##  4  5000      0   
    ##  5  3750     65.0 
    ##  6 25000    744   
    ##  7    50.0  120   
    ##  8   350      0   
    ##  9   100      5.00
    ## 10   650    721   
    ## # ... with 90 more rows

One of the useful functions for `select_if` is `n_distinct()`, which
counts the amount of distinct values that can be found in a column.  
To return the columns that have less than 20 distinct answers you pass
`~n_distinct(.) < 20` within the select\_if statement. Given that in
itself `n_distinct(.) < 20` is not a function, you will need to put a
tilde in front.

    kickstarter_sample %>%
      select_if(~n_distinct(.) < 20)

    ## # A tibble: 100 x 4
    ##    main_category currency state      country
    ##    <chr>         <chr>    <chr>      <chr>  
    ##  1 Art           EUR      failed     DE     
    ##  2 Music         USD      canceled   US     
    ##  3 Music         CAD      failed     CA     
    ##  4 Technology    AUD      failed     AU     
    ##  5 Music         USD      failed     US     
    ##  6 Technology    EUR      failed     ES     
    ##  7 Design        USD      successful US     
    ##  8 Film & Video  NOK      failed     NO     
    ##  9 Food          CAD      failed     CA     
    ## 10 Theater       USD      successful US     
    ## # ... with 90 more rows
…
### **Adding new columns**

You can make new columns with the `mutate`function. This new column can
take many forms, you can do pretty much anything that you can do on
normal vectors, inside a mutate function.  
One of the many options is a calculation based on values in other
columns:

    #new column which looks at the difference between pledged money and the original goal
    kickstarter_sample %>%
      select(name, pledged, goal) %>%
      mutate(delta_pledged_goal = pledged - goal)

    ## # A tibble: 100 x 4
    ##    name                                   pledged   goal delta_pledged_go~
    ##    <chr>                                    <dbl>  <dbl>             <dbl>
    ##  1 Positive7 - Werde Teil der Bewegung!      1.00 2.00e4          -19999  
    ##  2 The Buddz Break Out Album and Music V~  609    6.00e4          -59391  
    ##  3 Stupid Is As Stupid Does!                 4.00 1.50e2          -  146  
    ##  4 CITFREE.COM                               0    5.00e3          - 5000  
    ##  5 I won't stay silent                      65.0  3.75e3          - 3685  
    ##  6 "100% Ecological Lava Lamp - \"Elava ~  744    2.50e4          -24256  
    ##  7 100s of Logos in 10 Days!               120    5.00e1              70.0
    ##  8 Samurai Warrior the Anime Series          0    3.50e2          -  350  
    ##  9 Exploring Torontos Beer Scene As A Br~    5.00 1.00e2          -   95.0
    ## 10 Revolutionary Shorts: Join the Cause    721    6.50e2              71.0
    ## # ... with 90 more rows

The new column can be made with functions such as average, median, max,
min, ...

    kickstarter_sample %>%
      select(pledged, goal) %>%
      mutate(pledge_delta_vs_average = pledged - mean(pledged),
             goal_delta_vs_max = goal - max(goal))

    ## # A tibble: 100 x 4
    ##    pledged    goal pledge_delta_vs_average goal_delta_vs_max
    ##      <dbl>   <dbl>                   <dbl>             <dbl>
    ##  1    1.00 20000                    -13025            -80000
    ##  2  609    60000                    -12417            -40000
    ##  3    4.00   150                    -13022            -99850
    ##  4    0     5000                    -13026            -95000
    ##  5   65.0   3750                    -12961            -96250
    ##  6  744    25000                    -12282            -75000
    ##  7  120       50.0                  -12906            -99950
    ##  8    0      350                    -13026            -99650
    ##  9    5.00   100                    -13021            -99900
    ## 10  721      650                    -12305            -99350
    ## # ... with 90 more rows

You can also mutate string columns with stringr's `str_extract()`
function in combation with any character or regex patterns.

    #adding new column which has only the first word of the project name
    kickstarter_sample %>%
      mutate(name_first_word = str_extract(name, pattern = "^\\w+")) %>%
      select(name, name_first_word)

    ## # A tibble: 100 x 2
    ##    name                                                    name_first_word
    ##    <chr>                                                   <chr>          
    ##  1 Positive7 - Werde Teil der Bewegung!                    Positive7      
    ##  2 The Buddz Break Out Album and Music Video (Canceled)    The            
    ##  3 Stupid Is As Stupid Does!                               Stupid         
    ##  4 CITFREE.COM                                             CITFREE        
    ##  5 I won't stay silent                                     I              
    ##  6 "100% Ecological Lava Lamp - \"Elava Lamp\""            100            
    ##  7 100s of Logos in 10 Days!                               100s           
    ##  8 Samurai Warrior the Anime Series                        Samurai        
    ##  9 Exploring Torontos Beer Scene As A Broke College Stude~ Exploring      
    ## 10 Revolutionary Shorts: Join the Cause                    Revolutionary  
    ## # ... with 90 more rows

<br>

### **Merging and unmerging columns**

You can paste two columns together via tidyr's `unite()` function. You
specify the new column name, and then the columns to be united, and
lastly what seperator you want to use.

    #merging currency and goal columns
    (ks_merge <- kickstarter_sample %>%
      unite(goal_currency, currency, goal, sep=" ") %>%
      select(name, goal_currency))

    ## # A tibble: 100 x 2
    ##    name                                                     goal_currency
    ##  * <chr>                                                    <chr>        
    ##  1 Positive7 - Werde Teil der Bewegung!                     EUR 20000    
    ##  2 The Buddz Break Out Album and Music Video (Canceled)     USD 60000    
    ##  3 Stupid Is As Stupid Does!                                CAD 150      
    ##  4 CITFREE.COM                                              AUD 5000     
    ##  5 I won't stay silent                                      USD 3750     
    ##  6 "100% Ecological Lava Lamp - \"Elava Lamp\""             EUR 25000    
    ##  7 100s of Logos in 10 Days!                                USD 50       
    ##  8 Samurai Warrior the Anime Series                         NOK 350      
    ##  9 Exploring Torontos Beer Scene As A Broke College Student CAD 100      
    ## 10 Revolutionary Shorts: Join the Cause                     USD 650      
    ## # ... with 90 more rows
…
